solid OpenSCAD_Model
  facet normal -0 0 -1
    outer loop
      vertex 0 -7.055 -29.5
      vertex -6.8811 -9.45306 -29.5
      vertex -5.9397 -5.9397 -29.5
    endloop
  endfacet
  facet normal 0 0 -1
    outer loop
      vertex -3.46482 -14.2128 -29.5
      vertex -7.55471 -8.77946 -29.5
      vertex -6.8811 -9.45306 -29.5
    endloop
  endfacet
  facet normal 0 0 -1
    outer loop
      vertex -3.46482 -14.2128 -29.5
      vertex -9.45306 -6.8811 -29.5
      vertex -7.55471 -8.77946 -29.5
    endloop
  endfacet
  facet normal 0 0 -1
    outer loop
      vertex -17.607 -0.0707102 -29.5
      vertex -9.86414 -0.38891 -29.5
      vertex -9.45306 -6.8811 -29.5
    endloop
  endfacet
  facet normal 0 0 -1
    outer loop
      vertex -9.86414 -0.38891 -29.5
      vertex -17.607 -0.0707102 -29.5
      vertex -13.6825 3.42946 -29.5
    endloop
  endfacet
  facet normal 0 0 -1
    outer loop
      vertex -17.607 -0.0707102 -29.5
      vertex -9.45306 -6.8811 -29.5
      vertex -3.46482 -14.2128 -29.5
    endloop
  endfacet
  facet normal 0 0 -1
    outer loop
      vertex 14.2128 0.636395 -29.5
      vertex 14.7305 2.56824 -29.5
      vertex 14.7305 1.53298 -29.5
    endloop
  endfacet
  facet normal 0 0 -1
    outer loop
      vertex 14.2128 0.636395 -29.5
      vertex 14.2128 3.46482 -29.5
      vertex 14.7305 2.56824 -29.5
    endloop
  endfacet
  facet normal 0 0 -1
    outer loop
      vertex 7.055 0 -29.5
      vertex 14.2128 3.46482 -29.5
      vertex 14.2128 0.636395 -29.5
    endloop
  endfacet
  facet normal -0 0 -1
    outer loop
      vertex 14.2128 3.46482 -29.5
      vertex 7.055 0 -29.5
      vertex 9.45306 6.8811 -29.5
    endloop
  endfacet
  facet normal 0 0 -1
    outer loop
      vertex 14.2128 0.636395 -29.5
      vertex 0 -7.055 -29.5
      vertex 7.055 0 -29.5
    endloop
  endfacet
  facet normal 0 0 -1
    outer loop
      vertex -0.636395 -14.2128 -29.5
      vertex 0 -7.055 -29.5
      vertex 14.2128 0.636395 -29.5
    endloop
  endfacet
  facet normal 0 0 -1
    outer loop
      vertex -3.46482 -14.2128 -29.5
      vertex -0.636395 -14.2128 -29.5
      vertex -1.53298 -14.7305 -29.5
    endloop
  endfacet
  facet normal 0 0 -1
    outer loop
      vertex -3.46482 -14.2128 -29.5
      vertex -1.53298 -14.7305 -29.5
      vertex -2.56824 -14.7305 -29.5
    endloop
  endfacet
  facet normal 0 0 -1
    outer loop
      vertex -0.636395 -14.2128 -29.5
      vertex -3.46482 -14.2128 -29.5
      vertex 0 -7.055 -29.5
    endloop
  endfacet
  facet normal 0 0 -1
    outer loop
      vertex -6.8811 -9.45306 -29.5
      vertex 0 -7.055 -29.5
      vertex -3.46482 -14.2128 -29.5
    endloop
  endfacet
  facet normal 0 0 -1
    outer loop
      vertex -5.9397 -5.9397 -29.5
      vertex -6.37826 -0.676733 -29.5
      vertex 0 -7.055 -29.5
    endloop
  endfacet
  facet normal 0 0 -1
    outer loop
      vertex -6.85987 -6.18626 -29.5
      vertex -6.37826 -0.676733 -29.5
      vertex -5.9397 -5.9397 -29.5
    endloop
  endfacet
  facet normal 0 0 -1
    outer loop
      vertex -9.86414 -0.38891 -29.5
      vertex -6.85987 -6.18626 -29.5
      vertex -9.45306 -6.8811 -29.5
    endloop
  endfacet
  facet normal 0 0 -1
    outer loop
      vertex -6.85987 -6.18626 -29.5
      vertex -9.86414 -0.38891 -29.5
      vertex -6.37826 -0.676733 -29.5
    endloop
  endfacet
  facet normal 0 0 -1
    outer loop
      vertex 8.77946 7.55471 -29.5
      vertex 14.2128 3.46482 -29.5
      vertex 9.45306 6.8811 -29.5
    endloop
  endfacet
  facet normal 0 0 -1
    outer loop
      vertex 6.8811 9.45306 -29.5
      vertex 14.2128 3.46482 -29.5
      vertex 8.77946 7.55471 -29.5
    endloop
  endfacet
  facet normal 0 0 -1
    outer loop
      vertex 0 7.055 -29.5
      vertex 6.18626 6.85987 -29.5
      vertex 5.9397 5.9397 -29.5
    endloop
  endfacet
  facet normal 0 0 -1
    outer loop
      vertex 6.18626 6.85987 -29.5
      vertex 0 7.055 -29.5
      vertex 6.8811 9.45306 -29.5
    endloop
  endfacet
  facet normal 0 0 -1
    outer loop
      vertex 6.8811 9.45306 -29.5
      vertex 0.0707102 17.607 -29.5
      vertex 14.2128 3.46482 -29.5
    endloop
  endfacet
  facet normal 0 0 -1
    outer loop
      vertex 1.06066 12.3744 -29.5
      vertex 0.0707102 17.607 -29.5
      vertex 6.8811 9.45306 -29.5
    endloop
  endfacet
  facet normal 0 0 -1
    outer loop
      vertex -0.353553 13.7886 -29.5
      vertex 0.0707102 17.607 -29.5
      vertex 1.06066 12.3744 -29.5
    endloop
  endfacet
  facet normal 0 0 -1
    outer loop
      vertex -2.47487 14.4957 -29.5
      vertex 0.0707102 17.607 -29.5
      vertex -0.353553 13.7886 -29.5
    endloop
  endfacet
  facet normal -0 0 -1
    outer loop
      vertex 0.0707102 17.607 -29.5
      vertex -2.47487 14.4957 -29.5
      vertex -0.825871 18.1246 -29.5
    endloop
  endfacet
  facet normal -0 0 -1
    outer loop
      vertex -0.825871 18.1246 -29.5
      vertex -2.47487 14.4957 -29.5
      vertex -1.86113 18.1246 -29.5
    endloop
  endfacet
  facet normal 0 0 -1
    outer loop
      vertex -2.47487 14.4957 -29.5
      vertex -2.75772 17.607 -29.5
      vertex -1.86113 18.1246 -29.5
    endloop
  endfacet
  facet normal 0 0 -1
    outer loop
      vertex -6.11647 12.834 -29.5
      vertex -2.47487 14.4957 -29.5
      vertex -4.94975 12.0208 -29.5
    endloop
  endfacet
  facet normal -0 0 -1
    outer loop
      vertex -2.47487 14.4957 -29.5
      vertex -6.11647 12.834 -29.5
      vertex -2.75772 17.607 -29.5
    endloop
  endfacet
  facet normal 0 0 -1
    outer loop
      vertex -12.834 6.11647 -29.5
      vertex -2.75772 17.607 -29.5
      vertex -6.11647 12.834 -29.5
    endloop
  endfacet
  facet normal 0 0 -1
    outer loop
      vertex -17.607 2.75772 -29.5
      vertex -13.6825 3.42946 -29.5
      vertex -17.607 -0.0707102 -29.5
    endloop
  endfacet
  facet normal -0 0 -1
    outer loop
      vertex -12.834 6.11647 -29.5
      vertex -17.607 2.75772 -29.5
      vertex -2.75772 17.607 -29.5
    endloop
  endfacet
  facet normal -0 0 -1
    outer loop
      vertex -13.6825 3.42946 -29.5
      vertex -17.607 2.75772 -29.5
      vertex -12.834 6.11647 -29.5
    endloop
  endfacet
  facet normal 0 0 -1
    outer loop
      vertex -18.1246 0.825871 -29.5
      vertex -17.607 2.75772 -29.5
      vertex -17.607 -0.0707102 -29.5
    endloop
  endfacet
  facet normal 0 0 -1
    outer loop
      vertex -17.607 2.75772 -29.5
      vertex -18.1246 0.825871 -29.5
      vertex -18.1246 1.86113 -29.5
    endloop
  endfacet
  facet normal 0 0 -1
    outer loop
      vertex 7.055 0 -29.5
      vertex 5.9397 5.9397 -29.5
      vertex 9.45306 6.8811 -29.5
    endloop
  endfacet
  facet normal 0 0 -1
    outer loop
      vertex 0 7.055 -29.5
      vertex 5.9397 5.9397 -29.5
      vertex 7.055 0 -29.5
    endloop
  endfacet
  facet normal -0 0 -1
    outer loop
      vertex 6.8811 9.45306 -29.5
      vertex 0 7.055 -29.5
      vertex 1.06066 12.3744 -29.5
    endloop
  endfacet
  facet normal 0 0 -1
    outer loop
      vertex -1.41421 9.8995 -29.5
      vertex 0 7.055 -29.5
      vertex -0.168741 6.88626 -29.5
    endloop
  endfacet
  facet normal 0 0 -1
    outer loop
      vertex 0 7.055 -29.5
      vertex -1.41421 9.8995 -29.5
      vertex 1.06066 12.3744 -29.5
    endloop
  endfacet
  facet normal 0 0 -1
    outer loop
      vertex -0.168741 6.88626 -29.5
      vertex -3.53553 10.6066 -29.5
      vertex -1.41421 9.8995 -29.5
    endloop
  endfacet
  facet normal 0 0 -1
    outer loop
      vertex -6.11647 12.834 -29.5
      vertex -3.53553 10.6066 -29.5
      vertex -0.168741 6.88626 -29.5
    endloop
  endfacet
  facet normal 0 0 -1
    outer loop
      vertex -3.53553 10.6066 -29.5
      vertex -6.11647 12.834 -29.5
      vertex -4.94975 12.0208 -29.5
    endloop
  endfacet
  facet normal 0 -1 0
    outer loop
      vertex -2.56824 -14.7305 -29.5
      vertex -1.53298 -14.7305 -29
      vertex -2.56824 -14.7305 -29
    endloop
  endfacet
  facet normal 0 -1 -0
    outer loop
      vertex -1.53298 -14.7305 -29
      vertex -2.56824 -14.7305 -29.5
      vertex -1.53298 -14.7305 -29.5
    endloop
  endfacet
  facet normal -0.707105 -0.707109 0
    outer loop
      vertex -17.607 -0.0707102 -29.5
      vertex -3.46482 -14.2128 -29
      vertex -17.607 -0.0707102 -29
    endloop
  endfacet
  facet normal -0.707105 -0.707109 -0
    outer loop
      vertex -3.46482 -14.2128 -29
      vertex -17.607 -0.0707102 -29.5
      vertex -3.46482 -14.2128 -29.5
    endloop
  endfacet
  facet normal -0.500043 -0.866001 0
    outer loop
      vertex -3.46482 -14.2128 -29.5
      vertex -2.56824 -14.7305 -29
      vertex -3.46482 -14.2128 -29
    endloop
  endfacet
  facet normal -0.500043 -0.866001 -0
    outer loop
      vertex -2.56824 -14.7305 -29
      vertex -3.46482 -14.2128 -29.5
      vertex -2.56824 -14.7305 -29.5
    endloop
  endfacet
  facet normal -0.707338 0.706876 0
    outer loop
      vertex -2.75772 17.607 -29
      vertex -2.75772 17.607 -29.5
      vertex -2.83427 17.5304 -29
    endloop
  endfacet
  facet normal -0.707107 0.707107 7.07107e-05
    outer loop
      vertex -2.75772 17.607 -29.5
      vertex -17.5304 2.83427 -29
      vertex -2.83427 17.5304 -29
    endloop
  endfacet
  facet normal -0.707107 0.707107 7.07107e-05
    outer loop
      vertex -17.5304 2.83427 -29
      vertex -2.75772 17.607 -29.5
      vertex -17.607 2.75772 -29.5
    endloop
  endfacet
  facet normal -0.706876 0.707338 0
    outer loop
      vertex -17.607 2.75772 -29
      vertex -17.5304 2.83427 -29
      vertex -17.607 2.75772 -29.5
    endloop
  endfacet
  facet normal 0.49997 0.866043 -0
    outer loop
      vertex 0.0707102 17.607 -29.5
      vertex -0.825871 18.1246 -29
      vertex 0.0707102 17.607 -29
    endloop
  endfacet
  facet normal 0.49997 0.866043 0
    outer loop
      vertex -0.825871 18.1246 -29
      vertex 0.0707102 17.607 -29.5
      vertex -0.825871 18.1246 -29.5
    endloop
  endfacet
  facet normal 0.500041 -0.866002 0
    outer loop
      vertex -1.53298 -14.7305 -29.5
      vertex -0.636395 -14.2128 -29
      vertex -1.53298 -14.7305 -29
    endloop
  endfacet
  facet normal 0.500041 -0.866002 0
    outer loop
      vertex -0.636395 -14.2128 -29
      vertex -1.53298 -14.7305 -29.5
      vertex -0.636395 -14.2128 -29.5
    endloop
  endfacet
  facet normal -0.866045 0.499966 0
    outer loop
      vertex -18.1246 1.86113 -29.5
      vertex -17.607 2.75772 -29
      vertex -17.607 2.75772 -29.5
    endloop
  endfacet
  facet normal -0.866045 0.499966 0
    outer loop
      vertex -17.607 2.75772 -29
      vertex -18.1246 1.86113 -29.5
      vertex -18.1246 1.86113 -29
    endloop
  endfacet
  facet normal 0.707109 0.707105 0
    outer loop
      vertex 14.2128 3.46482 -29
      vertex 0.0707102 17.607 -29.5
      vertex 0.0707102 17.607 -29
    endloop
  endfacet
  facet normal 0.707109 0.707105 0
    outer loop
      vertex 0.0707102 17.607 -29.5
      vertex 14.2128 3.46482 -29
      vertex 14.2128 3.46482 -29.5
    endloop
  endfacet
  facet normal -0.499966 0.866045 0
    outer loop
      vertex -1.86113 18.1246 -29.5
      vertex -2.75772 17.607 -29
      vertex -1.86113 18.1246 -29
    endloop
  endfacet
  facet normal -0.499966 0.866045 0
    outer loop
      vertex -2.75772 17.607 -29
      vertex -1.86113 18.1246 -29.5
      vertex -2.75772 17.607 -29.5
    endloop
  endfacet
  facet normal 0.707356 -0.706857 0
    outer loop
      vertex 14.2128 0.636395 -29.5
      vertex 14.2128 0.636395 -29
      vertex 14.1363 0.559841 -29
    endloop
  endfacet
  facet normal 0.706857 -0.707356 0
    outer loop
      vertex -0.559841 -14.1363 -29
      vertex -0.636395 -14.2128 -29
      vertex -0.636395 -14.2128 -29.5
    endloop
  endfacet
  facet normal 0.707107 -0.707107 -7.63675e-05
    outer loop
      vertex -0.559841 -14.1363 -29
      vertex 14.2128 0.636395 -29.5
      vertex 14.1363 0.559841 -29
    endloop
  endfacet
  facet normal 0.707107 -0.707107 -7.63675e-05
    outer loop
      vertex 14.2128 0.636395 -29.5
      vertex -0.559841 -14.1363 -29
      vertex -0.636395 -14.2128 -29.5
    endloop
  endfacet
  facet normal 0.866002 -0.500041 0
    outer loop
      vertex 14.2128 0.636395 -29
      vertex 14.7305 1.53298 -29.5
      vertex 14.7305 1.53298 -29
    endloop
  endfacet
  facet normal 0.866002 -0.500041 0
    outer loop
      vertex 14.7305 1.53298 -29.5
      vertex 14.2128 0.636395 -29
      vertex 14.2128 0.636395 -29.5
    endloop
  endfacet
  facet normal -0.866043 -0.49997 0
    outer loop
      vertex -17.607 -0.0707102 -29.5
      vertex -18.1246 0.825871 -29
      vertex -18.1246 0.825871 -29.5
    endloop
  endfacet
  facet normal -0.866043 -0.49997 0
    outer loop
      vertex -18.1246 0.825871 -29
      vertex -17.607 -0.0707102 -29.5
      vertex -17.607 -0.0707102 -29
    endloop
  endfacet
  facet normal -1 0 0
    outer loop
      vertex -18.1246 0.825871 -29.5
      vertex -18.1246 1.86113 -29
      vertex -18.1246 1.86113 -29.5
    endloop
  endfacet
  facet normal -1 -0 0
    outer loop
      vertex -18.1246 1.86113 -29
      vertex -18.1246 0.825871 -29.5
      vertex -18.1246 0.825871 -29
    endloop
  endfacet
  facet normal 1 -0 0
    outer loop
      vertex 14.7305 1.53298 -29
      vertex 14.7305 2.56824 -29.5
      vertex 14.7305 2.56824 -29
    endloop
  endfacet
  facet normal 1 0 0
    outer loop
      vertex 14.7305 2.56824 -29.5
      vertex 14.7305 1.53298 -29
      vertex 14.7305 1.53298 -29.5
    endloop
  endfacet
  facet normal 0 1 -0
    outer loop
      vertex -0.825871 18.1246 -29.5
      vertex -1.86113 18.1246 -29
      vertex -0.825871 18.1246 -29
    endloop
  endfacet
  facet normal 0 1 0
    outer loop
      vertex -1.86113 18.1246 -29
      vertex -0.825871 18.1246 -29.5
      vertex -1.86113 18.1246 -29.5
    endloop
  endfacet
  facet normal 0.866001 0.500043 0
    outer loop
      vertex 14.7305 2.56824 -29
      vertex 14.2128 3.46482 -29.5
      vertex 14.2128 3.46482 -29
    endloop
  endfacet
  facet normal 0.866001 0.500043 0
    outer loop
      vertex 14.2128 3.46482 -29.5
      vertex 14.7305 2.56824 -29
      vertex 14.7305 2.56824 -29.5
    endloop
  endfacet
  facet normal -0.643724 0.643724 -0.413811
    outer loop
      vertex 7.055 0 -29.5
      vertex 0 -6.73358 -29
      vertex 6.73358 0 -29
    endloop
  endfacet
  facet normal -0.643724 0.643724 -0.413811
    outer loop
      vertex 0 -6.73358 -29
      vertex 7.055 0 -29.5
      vertex 0 -7.055 -29.5
    endloop
  endfacet
  facet normal 0.643729 0.64373 -0.413793
    outer loop
      vertex -6.02793 -0.70566 -29
      vertex -0.303722 -6.42986 -29
      vertex -6.37826 -0.676733 -29.5
    endloop
  endfacet
  facet normal 0.643721 0.643725 -0.413812
    outer loop
      vertex 0 -7.055 -29.5
      vertex -0.303722 -6.42986 -29
      vertex 0 -6.73358 -29
    endloop
  endfacet
  facet normal 0.643725 0.643724 -0.413809
    outer loop
      vertex -0.303722 -6.42986 -29
      vertex 0 -7.055 -29.5
      vertex -6.37826 -0.676733 -29.5
    endloop
  endfacet
  facet normal -0.643724 -0.643724 -0.413811
    outer loop
      vertex 7.055 0 -29.5
      vertex 0 6.73358 -29
      vertex 0 7.055 -29.5
    endloop
  endfacet
  facet normal -0.643724 -0.643724 -0.413811
    outer loop
      vertex 0 6.73358 -29
      vertex 7.055 0 -29.5
      vertex 6.73358 0 -29
    endloop
  endfacet
  facet normal 0.643723 -0.643727 -0.413807
    outer loop
      vertex 0 7.055 -29.5
      vertex -0.00803518 6.72555 -29
      vertex -0.168741 6.88626 -29.5
    endloop
  endfacet
  facet normal 0.643481 -0.643896 -0.413922
    outer loop
      vertex -0.00803518 6.72555 -29
      vertex 0 7.055 -29.5
      vertex 0 6.73358 -29
    endloop
  endfacet
  facet normal -0.707108 -0.707106 0
    outer loop
      vertex -0.291256 7.00877 -29
      vertex -6.11647 12.834 -29
      vertex -6.11647 12.834 -29.5
    endloop
  endfacet
  facet normal -0.707107 -0.707106 -7.3915e-06
    outer loop
      vertex -0.168741 6.88626 -29.5
      vertex -0.291256 7.00877 -29
      vertex -6.11647 12.834 -29.5
    endloop
  endfacet
  facet normal -0.707106 -0.707108 -6.56944e-06
    outer loop
      vertex -0.291256 7.00877 -29
      vertex -0.168741 6.88626 -29.5
      vertex -0.00803518 6.72555 -29
    endloop
  endfacet
  facet normal 0.947171 -0.253791 -0.196106
    outer loop
      vertex 6.37699 7.18532 -29
      vertex 6.8811 9.45306 -29.5
      vertex 6.93286 9.25988 -29
    endloop
  endfacet
  facet normal 0.947169 -0.253792 -0.196114
    outer loop
      vertex 6.8811 9.45306 -29.5
      vertex 6.37699 7.18532 -29
      vertex 6.18626 6.85987 -29.5
    endloop
  endfacet
  facet normal -0.253793 0.94717 -0.196106
    outer loop
      vertex 9.45306 6.8811 -29.5
      vertex 6.44919 6.17974 -29
      vertex 9.25988 6.93286 -29
    endloop
  endfacet
  facet normal -0.253793 0.94717 -0.196107
    outer loop
      vertex 6.44919 6.17974 -29
      vertex 9.45306 6.8811 -29.5
      vertex 5.9397 5.9397 -29.5
    endloop
  endfacet
  facet normal -0.253783 0.947171 -0.196118
    outer loop
      vertex 6.08112 6.08112 -29
      vertex 6.44919 6.17974 -29
      vertex 5.9397 5.9397 -29.5
    endloop
  endfacet
  facet normal -0.693373 -0.693378 -0.196115
    outer loop
      vertex 6.8811 9.45306 -29.5
      vertex 8.45155 7.7412 -29
      vertex 6.93286 9.25988 -29
    endloop
  endfacet
  facet normal -0.693374 -0.693378 -0.196113
    outer loop
      vertex 8.45155 7.7412 -29
      vertex 6.8811 9.45306 -29.5
      vertex 8.77946 7.55471 -29.5
    endloop
  endfacet
  facet normal 0.947169 -0.253794 -0.196113
    outer loop
      vertex 6.08112 6.08112 -29
      vertex 6.18626 6.85987 -29.5
      vertex 6.37699 7.18532 -29
    endloop
  endfacet
  facet normal 0.947168 -0.253794 -0.196114
    outer loop
      vertex 6.18626 6.85987 -29.5
      vertex 6.08112 6.08112 -29
      vertex 5.9397 5.9397 -29.5
    endloop
  endfacet
  facet normal -0.693376 -0.693376 -0.196114
    outer loop
      vertex 8.77946 7.55471 -29.5
      vertex 8.721 7.47175 -29
      vertex 8.45155 7.7412 -29
    endloop
  endfacet
  facet normal -0.693381 -0.69337 -0.196114
    outer loop
      vertex 9.45306 6.8811 -29.5
      vertex 8.721 7.47175 -29
      vertex 8.77946 7.55471 -29.5
    endloop
  endfacet
  facet normal -0.693382 -0.693369 -0.196117
    outer loop
      vertex 8.721 7.47175 -29
      vertex 9.45306 6.8811 -29.5
      vertex 9.25988 6.93286 -29
    endloop
  endfacet
  facet normal 0.253791 -0.947171 -0.196106
    outer loop
      vertex -9.45306 -6.8811 -29.5
      vertex -7.18532 -6.37699 -29
      vertex -9.25988 -6.93286 -29
    endloop
  endfacet
  facet normal 0.253792 -0.947169 -0.196114
    outer loop
      vertex -7.18532 -6.37699 -29
      vertex -9.45306 -6.8811 -29.5
      vertex -6.85987 -6.18626 -29.5
    endloop
  endfacet
  facet normal -0.947171 0.253783 -0.196118
    outer loop
      vertex -6.08112 -6.08112 -29
      vertex -5.9397 -5.9397 -29.5
      vertex -6.17974 -6.44919 -29
    endloop
  endfacet
  facet normal -0.94717 0.253793 -0.196107
    outer loop
      vertex -6.8811 -9.45306 -29.5
      vertex -6.17974 -6.44919 -29
      vertex -5.9397 -5.9397 -29.5
    endloop
  endfacet
  facet normal -0.94717 0.253793 -0.196106
    outer loop
      vertex -6.17974 -6.44919 -29
      vertex -6.8811 -9.45306 -29.5
      vertex -6.93286 -9.25988 -29
    endloop
  endfacet
  facet normal 0.693378 0.693373 -0.196115
    outer loop
      vertex -7.7412 -8.45155 -29
      vertex -9.45306 -6.8811 -29.5
      vertex -9.25988 -6.93286 -29
    endloop
  endfacet
  facet normal 0.693378 0.693374 -0.196113
    outer loop
      vertex -9.45306 -6.8811 -29.5
      vertex -7.7412 -8.45155 -29
      vertex -7.55471 -8.77946 -29.5
    endloop
  endfacet
  facet normal 0.253794 -0.947169 -0.196113
    outer loop
      vertex -6.85987 -6.18626 -29.5
      vertex -6.08112 -6.08112 -29
      vertex -7.18532 -6.37699 -29
    endloop
  endfacet
  facet normal 0.253794 -0.947168 -0.196114
    outer loop
      vertex -6.08112 -6.08112 -29
      vertex -6.85987 -6.18626 -29.5
      vertex -5.9397 -5.9397 -29.5
    endloop
  endfacet
  facet normal 0.693376 0.693376 -0.196114
    outer loop
      vertex -7.47175 -8.721 -29
      vertex -7.55471 -8.77946 -29.5
      vertex -7.7412 -8.45155 -29
    endloop
  endfacet
  facet normal 0.693369 0.693382 -0.196117
    outer loop
      vertex -6.8811 -9.45306 -29.5
      vertex -7.47175 -8.721 -29
      vertex -6.93286 -9.25988 -29
    endloop
  endfacet
  facet normal 0.69337 0.693381 -0.196114
    outer loop
      vertex -7.47175 -8.721 -29
      vertex -6.8811 -9.45306 -29.5
      vertex -7.55471 -8.77946 -29.5
    endloop
  endfacet
  facet normal 0.707107 -0.707107 0
    outer loop
      vertex -12.834 6.11647 -29
      vertex -6.11647 12.834 -29.5
      vertex -6.11647 12.834 -29
    endloop
  endfacet
  facet normal 0.707107 -0.707107 0
    outer loop
      vertex -6.11647 12.834 -29.5
      vertex -12.834 6.11647 -29
      vertex -12.834 6.11647 -29.5
    endloop
  endfacet
  facet normal 0.953586 -0.301122 0
    outer loop
      vertex -13.6825 3.42946 -29
      vertex -12.834 6.11647 -29.5
      vertex -12.834 6.11647 -29
    endloop
  endfacet
  facet normal 0.953586 -0.301122 0
    outer loop
      vertex -12.834 6.11647 -29.5
      vertex -13.6825 3.42946 -29
      vertex -13.6825 3.42946 -29.5
    endloop
  endfacet
  facet normal 0.082289 0.996609 1.1901e-06
    outer loop
      vertex -6.02793 -0.70566 -29
      vertex -6.37826 -0.676733 -29.5
      vertex -7.08966 -0.617994 -29
    endloop
  endfacet
  facet normal 0.0822882 0.996609 1.0114e-07
    outer loop
      vertex -9.86414 -0.38891 -29.5
      vertex -7.08966 -0.617994 -29
      vertex -6.37826 -0.676733 -29.5
    endloop
  endfacet
  facet normal 0.0822882 0.996609 0
    outer loop
      vertex -7.08966 -0.617994 -29
      vertex -9.86414 -0.38891 -29.5
      vertex -9.86414 -0.38891 -29
    endloop
  endfacet
  facet normal 0.707108 0.707106 0
    outer loop
      vertex -9.86414 -0.38891 -29
      vertex -13.6825 3.42946 -29.5
      vertex -13.6825 3.42946 -29
    endloop
  endfacet
  facet normal 0.707108 0.707106 0
    outer loop
      vertex -13.6825 3.42946 -29.5
      vertex -9.86414 -0.38891 -29
      vertex -9.86414 -0.38891 -29.5
    endloop
  endfacet
  facet normal -0.707111 0.707102 0
    outer loop
      vertex -1.41421 9.8995 -29.5
      vertex 1.06066 12.3744 -29
      vertex 1.06066 12.3744 -29.5
    endloop
  endfacet
  facet normal -0.707111 0.707102 0
    outer loop
      vertex 1.06066 12.3744 -29
      vertex -1.41421 9.8995 -29.5
      vertex -1.41421 9.8995 -29
    endloop
  endfacet
  facet normal 0.70711 -0.707104 0
    outer loop
      vertex -4.94975 12.0208 -29
      vertex -2.47487 14.4957 -29.5
      vertex -2.47487 14.4957 -29
    endloop
  endfacet
  facet normal 0.70711 -0.707104 0
    outer loop
      vertex -2.47487 14.4957 -29.5
      vertex -4.94975 12.0208 -29
      vertex -4.94975 12.0208 -29.5
    endloop
  endfacet
  facet normal 0.316225 0.948684 -0
    outer loop
      vertex -1.41421 9.8995 -29.5
      vertex -3.53553 10.6066 -29
      vertex -1.41421 9.8995 -29
    endloop
  endfacet
  facet normal 0.316225 0.948684 0
    outer loop
      vertex -3.53553 10.6066 -29
      vertex -1.41421 9.8995 -29.5
      vertex -3.53553 10.6066 -29.5
    endloop
  endfacet
  facet normal 0.707102 0.707112 -0
    outer loop
      vertex -3.53553 10.6066 -29.5
      vertex -4.94975 12.0208 -29
      vertex -3.53553 10.6066 -29
    endloop
  endfacet
  facet normal 0.707102 0.707112 0
    outer loop
      vertex -4.94975 12.0208 -29
      vertex -3.53553 10.6066 -29.5
      vertex -4.94975 12.0208 -29.5
    endloop
  endfacet
  facet normal -0.316225 -0.948684 0
    outer loop
      vertex -2.47487 14.4957 -29.5
      vertex -0.353553 13.7886 -29
      vertex -2.47487 14.4957 -29
    endloop
  endfacet
  facet normal -0.316225 -0.948684 -0
    outer loop
      vertex -0.353553 13.7886 -29
      vertex -2.47487 14.4957 -29.5
      vertex -0.353553 13.7886 -29.5
    endloop
  endfacet
  facet normal -0.707104 -0.70711 0
    outer loop
      vertex -0.353553 13.7886 -29.5
      vertex 1.06066 12.3744 -29
      vertex -0.353553 13.7886 -29
    endloop
  endfacet
  facet normal -0.707104 -0.70711 -0
    outer loop
      vertex 1.06066 12.3744 -29
      vertex -0.353553 13.7886 -29.5
      vertex 1.06066 12.3744 -29.5
    endloop
  endfacet
  facet normal 0 0 1
    outer loop
      vertex -7.08966 -0.617994 -29
      vertex -6.08112 -6.08112 -29
      vertex -6.02793 -0.70566 -29
    endloop
  endfacet
  facet normal 0 0 1
    outer loop
      vertex -7.08966 -0.617994 -29
      vertex -7.18532 -6.37699 -29
      vertex -6.08112 -6.08112 -29
    endloop
  endfacet
  facet normal 0 0 1
    outer loop
      vertex -9.86414 -0.38891 -29
      vertex -7.18532 -6.37699 -29
      vertex -7.08966 -0.617994 -29
    endloop
  endfacet
  facet normal 0 0 1
    outer loop
      vertex -7.18532 -6.37699 -29
      vertex -9.86414 -0.38891 -29
      vertex -9.25988 -6.93286 -29
    endloop
  endfacet
  facet normal -0 0 1
    outer loop
      vertex 6.44919 6.17974 -29
      vertex 6.73358 0 -29
      vertex 9.25988 6.93286 -29
    endloop
  endfacet
  facet normal -0 0 1
    outer loop
      vertex 6.08112 6.08112 -29
      vertex 6.73358 0 -29
      vertex 6.44919 6.17974 -29
    endloop
  endfacet
  facet normal 0 0 1
    outer loop
      vertex 6.37699 7.18532 -29
      vertex 0 6.73358 -29
      vertex 6.08112 6.08112 -29
    endloop
  endfacet
  facet normal 0 0 1
    outer loop
      vertex 6.08112 6.08112 -29
      vertex 0 6.73358 -29
      vertex 6.73358 0 -29
    endloop
  endfacet
  facet normal -0 0 1
    outer loop
      vertex -0.291256 7.00877 -29
      vertex 0 6.73358 -29
      vertex 1.06066 12.3744 -29
    endloop
  endfacet
  facet normal 0 0 1
    outer loop
      vertex 0 6.73358 -29
      vertex -0.291256 7.00877 -29
      vertex -0.00803518 6.72555 -29
    endloop
  endfacet
  facet normal -0 0 1
    outer loop
      vertex -1.41421 9.8995 -29
      vertex -0.291256 7.00877 -29
      vertex 1.06066 12.3744 -29
    endloop
  endfacet
  facet normal 0 0 1
    outer loop
      vertex -3.53553 10.6066 -29
      vertex -0.291256 7.00877 -29
      vertex -1.41421 9.8995 -29
    endloop
  endfacet
  facet normal 0 0 1
    outer loop
      vertex -6.11647 12.834 -29
      vertex -3.53553 10.6066 -29
      vertex -4.94975 12.0208 -29
    endloop
  endfacet
  facet normal 0 0 1
    outer loop
      vertex -3.53553 10.6066 -29
      vertex -6.11647 12.834 -29
      vertex -0.291256 7.00877 -29
    endloop
  endfacet
  facet normal 0 0 1
    outer loop
      vertex 14.2128 3.46482 -29
      vertex 14.7305 1.53298 -29
      vertex 14.7305 2.56824 -29
    endloop
  endfacet
  facet normal 0 0 1
    outer loop
      vertex 14.2128 3.46482 -29
      vertex 14.2128 0.636395 -29
      vertex 14.7305 1.53298 -29
    endloop
  endfacet
  facet normal 0 0 1
    outer loop
      vertex 14.2128 3.46482 -29
      vertex 14.1363 0.559841 -29
      vertex 14.2128 0.636395 -29
    endloop
  endfacet
  facet normal 0 0 1
    outer loop
      vertex 6.73358 0 -29
      vertex 14.2128 3.46482 -29
      vertex 9.25988 6.93286 -29
    endloop
  endfacet
  facet normal 0 0 1
    outer loop
      vertex 14.2128 3.46482 -29
      vertex 8.721 7.47175 -29
      vertex 9.25988 6.93286 -29
    endloop
  endfacet
  facet normal 0 0 1
    outer loop
      vertex 14.2128 3.46482 -29
      vertex 8.45155 7.7412 -29
      vertex 8.721 7.47175 -29
    endloop
  endfacet
  facet normal 0 0 1
    outer loop
      vertex 14.2128 3.46482 -29
      vertex 6.93286 9.25988 -29
      vertex 8.45155 7.7412 -29
    endloop
  endfacet
  facet normal 0 0 1
    outer loop
      vertex 1.06066 12.3744 -29
      vertex 6.37699 7.18532 -29
      vertex 6.93286 9.25988 -29
    endloop
  endfacet
  facet normal 0 0 1
    outer loop
      vertex 0 6.73358 -29
      vertex 6.37699 7.18532 -29
      vertex 1.06066 12.3744 -29
    endloop
  endfacet
  facet normal 0 0 1
    outer loop
      vertex 0.0707102 17.607 -29
      vertex 6.93286 9.25988 -29
      vertex 14.2128 3.46482 -29
    endloop
  endfacet
  facet normal 0 0 1
    outer loop
      vertex 0.0707102 17.607 -29
      vertex 1.06066 12.3744 -29
      vertex 6.93286 9.25988 -29
    endloop
  endfacet
  facet normal 0 0 1
    outer loop
      vertex 0.0707102 17.607 -29
      vertex -0.353553 13.7886 -29
      vertex 1.06066 12.3744 -29
    endloop
  endfacet
  facet normal 0 0 1
    outer loop
      vertex -2.47487 14.4957 -29
      vertex 0.0707102 17.607 -29
      vertex -0.825871 18.1246 -29
    endloop
  endfacet
  facet normal 0 0 1
    outer loop
      vertex -2.47487 14.4957 -29
      vertex -0.825871 18.1246 -29
      vertex -1.86113 18.1246 -29
    endloop
  endfacet
  facet normal 0 0 1
    outer loop
      vertex 0.0707102 17.607 -29
      vertex -2.47487 14.4957 -29
      vertex -0.353553 13.7886 -29
    endloop
  endfacet
  facet normal -0 0 1
    outer loop
      vertex -2.75772 17.607 -29
      vertex -2.47487 14.4957 -29
      vertex -1.86113 18.1246 -29
    endloop
  endfacet
  facet normal -0 0 1
    outer loop
      vertex -2.83427 17.5304 -29
      vertex -2.47487 14.4957 -29
      vertex -2.75772 17.607 -29
    endloop
  endfacet
  facet normal 0 0 1
    outer loop
      vertex -6.11647 12.834 -29
      vertex -2.47487 14.4957 -29
      vertex -2.83427 17.5304 -29
    endloop
  endfacet
  facet normal 0 0 1
    outer loop
      vertex -2.47487 14.4957 -29
      vertex -6.11647 12.834 -29
      vertex -4.94975 12.0208 -29
    endloop
  endfacet
  facet normal 0 0 1
    outer loop
      vertex -2.83427 17.5304 -29
      vertex -12.834 6.11647 -29
      vertex -6.11647 12.834 -29
    endloop
  endfacet
  facet normal 0 0 1
    outer loop
      vertex -12.834 6.11647 -29
      vertex -17.5304 2.83427 -29
      vertex -13.6825 3.42946 -29
    endloop
  endfacet
  facet normal 0 0 1
    outer loop
      vertex -17.5304 2.83427 -29
      vertex -12.834 6.11647 -29
      vertex -2.83427 17.5304 -29
    endloop
  endfacet
  facet normal 0 0 1
    outer loop
      vertex 14.2128 3.46482 -29
      vertex 6.73358 0 -29
      vertex 14.1363 0.559841 -29
    endloop
  endfacet
  facet normal 0 0 1
    outer loop
      vertex 0 -6.73358 -29
      vertex 14.1363 0.559841 -29
      vertex 6.73358 0 -29
    endloop
  endfacet
  facet normal -0 0 1
    outer loop
      vertex 0 -6.73358 -29
      vertex -0.559841 -14.1363 -29
      vertex 14.1363 0.559841 -29
    endloop
  endfacet
  facet normal 0 0 1
    outer loop
      vertex -6.93286 -9.25988 -29
      vertex 0 -6.73358 -29
      vertex -0.303722 -6.42986 -29
    endloop
  endfacet
  facet normal 0 0 1
    outer loop
      vertex 0 -6.73358 -29
      vertex -3.46482 -14.2128 -29
      vertex -0.559841 -14.1363 -29
    endloop
  endfacet
  facet normal 0 0 1
    outer loop
      vertex -0.559841 -14.1363 -29
      vertex -3.46482 -14.2128 -29
      vertex -0.636395 -14.2128 -29
    endloop
  endfacet
  facet normal 0 0 1
    outer loop
      vertex -0.636395 -14.2128 -29
      vertex -3.46482 -14.2128 -29
      vertex -1.53298 -14.7305 -29
    endloop
  endfacet
  facet normal 0 0 1
    outer loop
      vertex -1.53298 -14.7305 -29
      vertex -3.46482 -14.2128 -29
      vertex -2.56824 -14.7305 -29
    endloop
  endfacet
  facet normal -0 0 1
    outer loop
      vertex -6.08112 -6.08112 -29
      vertex -0.303722 -6.42986 -29
      vertex -6.02793 -0.70566 -29
    endloop
  endfacet
  facet normal 0 0 1
    outer loop
      vertex -6.17974 -6.44919 -29
      vertex -0.303722 -6.42986 -29
      vertex -6.08112 -6.08112 -29
    endloop
  endfacet
  facet normal 0 0 1
    outer loop
      vertex -6.93286 -9.25988 -29
      vertex -0.303722 -6.42986 -29
      vertex -6.17974 -6.44919 -29
    endloop
  endfacet
  facet normal 0 0 1
    outer loop
      vertex 0 -6.73358 -29
      vertex -6.93286 -9.25988 -29
      vertex -3.46482 -14.2128 -29
    endloop
  endfacet
  facet normal 0 0 1
    outer loop
      vertex -7.47175 -8.721 -29
      vertex -3.46482 -14.2128 -29
      vertex -6.93286 -9.25988 -29
    endloop
  endfacet
  facet normal 0 0 1
    outer loop
      vertex -7.7412 -8.45155 -29
      vertex -3.46482 -14.2128 -29
      vertex -7.47175 -8.721 -29
    endloop
  endfacet
  facet normal 0 0 1
    outer loop
      vertex -9.25988 -6.93286 -29
      vertex -3.46482 -14.2128 -29
      vertex -7.7412 -8.45155 -29
    endloop
  endfacet
  facet normal -0 0 1
    outer loop
      vertex -17.607 -0.0707102 -29
      vertex -9.86414 -0.38891 -29
      vertex -13.6825 3.42946 -29
    endloop
  endfacet
  facet normal 0 0 1
    outer loop
      vertex -17.607 -0.0707102 -29
      vertex -13.6825 3.42946 -29
      vertex -17.5304 2.83427 -29
    endloop
  endfacet
  facet normal 0 0 1
    outer loop
      vertex -9.86414 -0.38891 -29
      vertex -17.607 -0.0707102 -29
      vertex -9.25988 -6.93286 -29
    endloop
  endfacet
  facet normal 0 0 1
    outer loop
      vertex -17.607 -0.0707102 -29
      vertex -17.5304 2.83427 -29
      vertex -17.607 2.75772 -29
    endloop
  endfacet
  facet normal 0 0 1
    outer loop
      vertex -9.25988 -6.93286 -29
      vertex -17.607 -0.0707102 -29
      vertex -3.46482 -14.2128 -29
    endloop
  endfacet
  facet normal -0 0 1
    outer loop
      vertex -18.1246 1.86113 -29
      vertex -17.607 -0.0707102 -29
      vertex -17.607 2.75772 -29
    endloop
  endfacet
  facet normal 0 0 1
    outer loop
      vertex -17.607 -0.0707102 -29
      vertex -18.1246 1.86113 -29
      vertex -18.1246 0.825871 -29
    endloop
  endfacet
endsolid OpenSCAD_Model
