<?xml version="1.0" encoding="UTF-8" standalone="no"?>
<!-- Created with Inkscape (http://www.inkscape.org/) -->

<svg
   xmlns:dc="http://purl.org/dc/elements/1.1/"
   xmlns:cc="http://creativecommons.org/ns#"
   xmlns:rdf="http://www.w3.org/1999/02/22-rdf-syntax-ns#"
   xmlns:svg="http://www.w3.org/2000/svg"
   xmlns="http://www.w3.org/2000/svg"
   xmlns:sodipodi="http://sodipodi.sourceforge.net/DTD/sodipodi-0.dtd"
   xmlns:inkscape="http://www.inkscape.org/namespaces/inkscape"
   width="4.7740002in"
   height="2.5in"
   viewBox="0 0 121.2596 63.5"
   version="1.1"
   id="svg8"
   inkscape:version="0.92.4 (5da689c313, 2019-01-14)"
   sodipodi:docname="apparatus.svg">
  <defs
     id="defs2">
    <marker
       inkscape:stockid="Arrow1Lend"
       orient="auto"
       refY="0.0"
       refX="0.0"
       id="Arrow1Lend"
       style="overflow:visible;"
       inkscape:isstock="true">
      <path
         id="path1851"
         d="M 0.0,0.0 L 5.0,-5.0 L -12.5,0.0 L 5.0,5.0 L 0.0,0.0 z "
         style="fill-rule:evenodd;stroke:#000000;stroke-width:1pt;stroke-opacity:1;fill:#000000;fill-opacity:1"
         transform="scale(0.8) rotate(180) translate(12.5,0)" />
    </marker>
    <marker
       inkscape:stockid="Arrow1Lstart"
       orient="auto"
       refY="0.0"
       refX="0.0"
       id="Arrow1Lstart"
       style="overflow:visible"
       inkscape:isstock="true">
      <path
         id="path1848"
         d="M 0.0,0.0 L 5.0,-5.0 L -12.5,0.0 L 5.0,5.0 L 0.0,0.0 z "
         style="fill-rule:evenodd;stroke:#000000;stroke-width:1pt;stroke-opacity:1;fill:#000000;fill-opacity:1"
         transform="scale(0.8) translate(12.5,0)" />
    </marker>
    <marker
       inkscape:stockid="Arrow2Send"
       orient="auto"
       refY="0.0"
       refX="0.0"
       id="Arrow2Send"
       style="overflow:visible;"
       inkscape:isstock="true">
      <path
         id="path10103"
         style="fill-rule:evenodd;stroke-width:0.625;stroke-linejoin:round;stroke:#000000;stroke-opacity:1;fill:#000000;fill-opacity:1"
         d="M 8.7185878,4.0337352 L -2.2072895,0.016013256 L 8.7185884,-4.0017078 C 6.9730900,-1.6296469 6.9831476,1.6157441 8.7185878,4.0337352 z "
         transform="scale(0.3) rotate(180) translate(-2.3,0)" />
    </marker>
    <clipPath
       clipPathUnits="userSpaceOnUse"
       id="clipPath15618">
      <rect
         style="opacity:1;fill:#f2f2f2;fill-opacity:1;stroke:none;stroke-width:0.26499999;stroke-miterlimit:4;stroke-dasharray:none;stroke-dashoffset:0"
         id="rect15620"
         width="39.841373"
         height="22.733583"
         x="61.817947"
         y="240.88496"
         ry="1.59052" />
    </clipPath>
    <clipPath
       clipPathUnits="userSpaceOnUse"
       id="clipPath15644">
      <rect
         ry="1.59052"
         y="240.81628"
         x="6.9887528"
         height="22.733583"
         width="37.817074"
         id="rect15646"
         style="opacity:1;fill:#f2f2f2;fill-opacity:1;stroke:#000000;stroke-width:0.26499999;stroke-miterlimit:4;stroke-dasharray:none;stroke-dashoffset:0" />
    </clipPath>
    <clipPath
       clipPathUnits="userSpaceOnUse"
       id="clipPath15872">
      <rect
         ry="1.59052"
         y="268.79141"
         x="61.28878"
         height="22.733583"
         width="39.841373"
         id="rect15874"
         style="opacity:1;fill:#f2f2f2;fill-opacity:1;stroke:#000000;stroke-width:0.26499999;stroke-miterlimit:4;stroke-dasharray:none;stroke-dashoffset:0" />
    </clipPath>
  </defs>
  <sodipodi:namedview
     id="base"
     pagecolor="#ffffff"
     bordercolor="#666666"
     borderopacity="1.0"
     inkscape:pageopacity="0.0"
     inkscape:pageshadow="2"
     inkscape:zoom="1.8298523"
     inkscape:cx="319.56311"
     inkscape:cy="79.56234"
     inkscape:document-units="mm"
     inkscape:current-layer="layer1"
     showgrid="false"
     units="in"
     inkscape:window-width="1707"
     inkscape:window-height="897"
     inkscape:window-x="-8"
     inkscape:window-y="1072"
     inkscape:window-maximized="1" />
  <metadata
     id="metadata5">
    <rdf:RDF>
      <cc:Work
         rdf:about="">
        <dc:format>image/svg+xml</dc:format>
        <dc:type
           rdf:resource="http://purl.org/dc/dcmitype/StillImage" />
        <dc:title></dc:title>
      </cc:Work>
    </rdf:RDF>
  </metadata>
  <g
     inkscape:label="Layer 1"
     inkscape:groupmode="layer"
     id="layer1"
     transform="translate(0,-233.5)">
    <path
       style="fill:none;stroke:#000000;stroke-width:0.26458332px;stroke-linecap:butt;stroke-linejoin:miter;stroke-opacity:1"
       d="m 93.768385,241.3364 c 0,-3.33032 5.304594,-1.48996 5.713563,7.50738"
       id="path1728"
       inkscape:connector-curvature="0" />
    <path
       style="fill:none;stroke:#000000;stroke-width:0.26458332px;stroke-linecap:butt;stroke-linejoin:miter;stroke-opacity:1"
       d="m 30.653659,250.11581 c 0,3.8401 -3.968366,2.30646 -3.968366,2.30646"
       id="path1746"
       inkscape:connector-curvature="0" />
    <path
       style="opacity:1;fill:#4d4d4d;fill-opacity:1;stroke:#000000;stroke-width:1.00157475;stroke-miterlimit:4;stroke-dasharray:none;stroke-dashoffset:0"
       d="M 349.7168 18.769531 A 34.005695 34.005695 0 0 0 322.07617 33.015625 L 130.06445 33.015625 L 130.06445 46.121094 L 130.96484 46.640625 L 130.96484 44.488281 L 134.69336 46.640625 L 134.69336 44.488281 L 138.42188 46.640625 L 138.42188 44.488281 L 142.15039 46.640625 L 142.15039 44.488281 L 145.87891 46.640625 L 145.87891 44.488281 L 149.60938 46.642578 L 149.60938 44.488281 L 153.33789 46.642578 L 153.33789 44.488281 L 157.06641 46.642578 L 157.06641 44.488281 L 160.79492 46.642578 L 160.79492 44.488281 L 164.52344 46.642578 L 164.52344 44.488281 L 168.25195 46.642578 L 168.25195 44.488281 L 171.98047 46.642578 L 171.98047 44.488281 L 175.70898 46.642578 L 175.70898 44.488281 L 179.4375 46.642578 L 179.4375 44.488281 L 183.16602 46.642578 L 183.16602 44.488281 L 186.89453 46.642578 L 186.89453 44.488281 L 190.62305 46.642578 L 190.62305 44.488281 L 194.35156 46.640625 L 194.35156 44.488281 L 198.08008 46.640625 L 198.08008 44.488281 L 201.80859 46.640625 L 201.80859 44.488281 L 205.53711 46.640625 L 205.53711 44.488281 L 209.26562 46.640625 L 209.26562 44.488281 L 212.99414 46.640625 L 212.99414 44.488281 L 216.72266 46.640625 L 216.72266 44.488281 L 220.45117 46.640625 L 220.45117 44.488281 L 224.17969 46.640625 L 224.17969 44.488281 L 227.9082 46.640625 L 227.9082 44.488281 L 231.63672 46.640625 L 231.63672 44.488281 L 235.36523 46.640625 L 235.36523 44.488281 L 239.0957 46.642578 L 239.0957 44.488281 L 242.82422 46.642578 L 242.82422 44.488281 L 246.55273 46.642578 L 246.55273 44.488281 L 250.28125 46.642578 L 250.28125 44.488281 L 254.00977 46.642578 L 254.00977 44.488281 L 257.73828 46.642578 L 257.73828 44.488281 L 261.4668 46.642578 L 261.4668 44.488281 L 265.19531 46.642578 L 265.19531 44.488281 L 268.92383 46.642578 L 268.92383 44.488281 L 272.65234 46.642578 L 272.65234 44.488281 L 276.38086 46.642578 L 276.38086 44.488281 L 280.10938 46.642578 L 280.10938 44.488281 L 283.83789 46.640625 L 283.83789 44.488281 L 287.56641 46.640625 L 287.56641 44.488281 L 291.29492 46.640625 L 291.29492 44.488281 L 295.02344 46.640625 L 295.02344 44.488281 L 298.75195 46.640625 L 298.75195 44.488281 L 302.48047 46.640625 L 302.48047 44.488281 L 306.20898 46.640625 L 306.20898 44.488281 L 309.9375 46.640625 L 309.9375 44.488281 L 313.66602 46.640625 L 313.66602 44.488281 L 313.66602 44.164062 L 319.80664 44.164062 A 31.149546 31.149546 0 0 1 349.7168 21.625 L 349.7168 18.769531 z M 130.96484 59.285156 L 130.06445 59.804688 L 130.06445 72.910156 L 322.36328 72.910156 A 34.005695 34.005695 0 0 0 349.7168 86.78125 L 349.7168 83.925781 A 31.149546 31.149546 0 0 1 319.79688 61.386719 L 313.75391 61.386719 L 313.66602 61.4375 L 313.66602 61.386719 L 313.66602 59.285156 L 309.9375 61.4375 L 309.9375 59.285156 L 306.20898 61.4375 L 306.20898 59.285156 L 302.48047 61.4375 L 302.48047 59.285156 L 298.75195 61.4375 L 298.75195 59.285156 L 295.02344 61.4375 L 295.02344 59.285156 L 291.29492 61.4375 L 291.29492 59.285156 L 287.56641 61.4375 L 287.56641 59.285156 L 283.83789 61.4375 L 283.83789 59.285156 L 280.10938 61.4375 L 280.10938 59.285156 L 276.38086 61.4375 L 276.38086 59.285156 L 272.65234 61.4375 L 272.65234 59.285156 L 268.92383 61.4375 L 268.92383 59.285156 L 265.19531 61.4375 L 265.19531 59.285156 L 261.4668 61.4375 L 261.4668 59.285156 L 257.73828 61.4375 L 257.73828 59.285156 L 254.00977 61.4375 L 254.00977 59.285156 L 250.28125 61.4375 L 250.28125 59.285156 L 246.55273 61.4375 L 246.55273 59.285156 L 242.82422 61.4375 L 242.82422 59.285156 L 239.0957 61.4375 L 239.0957 59.285156 L 235.36523 61.4375 L 235.36523 59.285156 L 231.63672 61.4375 L 231.63672 59.285156 L 227.9082 61.4375 L 227.9082 59.285156 L 224.17969 61.4375 L 224.17969 59.285156 L 220.45117 61.4375 L 220.45117 59.285156 L 216.72266 61.4375 L 216.72266 59.285156 L 212.99414 61.4375 L 212.99414 59.285156 L 209.26562 61.4375 L 209.26562 59.285156 L 205.53711 61.4375 L 205.53711 59.285156 L 201.80859 61.4375 L 201.80859 59.285156 L 198.08008 61.4375 L 198.08008 59.285156 L 194.35156 61.4375 L 194.35156 59.285156 L 190.62305 61.4375 L 190.62305 59.285156 L 186.89453 61.4375 L 186.89453 59.285156 L 183.16602 61.4375 L 183.16602 59.285156 L 179.4375 61.4375 L 179.4375 59.285156 L 175.70898 61.4375 L 175.70898 59.285156 L 171.98047 61.4375 L 171.98047 59.285156 L 168.25195 61.4375 L 168.25195 59.285156 L 164.52344 61.4375 L 164.52344 59.285156 L 160.79492 61.4375 L 160.79492 59.285156 L 157.06641 61.4375 L 157.06641 59.285156 L 153.33789 61.4375 L 153.33789 59.285156 L 149.60938 61.4375 L 149.60938 59.285156 L 145.87891 61.4375 L 145.87891 59.285156 L 142.15039 61.4375 L 142.15039 59.285156 L 138.42188 61.4375 L 138.42188 59.285156 L 134.69336 61.4375 L 134.69336 59.285156 L 130.96484 61.4375 L 130.96484 59.285156 z "
       transform="matrix(0.26458333,0,0,0.26458333,0,233.5)"
       id="rect1388" />
    <rect
       style="opacity:1;fill:#ffffff;fill-opacity:1;stroke:#000000;stroke-width:0.26499999;stroke-miterlimit:4;stroke-dasharray:none;stroke-dashoffset:0"
       id="rect1654"
       width="0.65066725"
       height="12.362678"
       x="33.545326"
       y="241.33179" />
    <path
       style="opacity:1;fill:#666666;fill-opacity:1;stroke:#000000;stroke-width:1.00157475;stroke-miterlimit:4;stroke-dasharray:none;stroke-dashoffset:0"
       d="M 117.97461 36.705078 L 117.97461 48.865234 L 126.17188 48.865234 L 126.17188 36.705078 L 117.97461 36.705078 z M 117.97461 57.0625 L 117.97461 69.220703 L 126.17188 69.220703 L 126.17188 57.0625 L 117.97461 57.0625 z "
       transform="matrix(0.26458333,0,0,0.26458333,0,233.5)"
       id="rect1656" />
    <rect
       style="opacity:1;fill:#008000;fill-opacity:1;stroke:#000000;stroke-width:0.26499999;stroke-miterlimit:4;stroke-dasharray:none;stroke-dashoffset:0"
       id="rect1661"
       width="0.43377817"
       height="5.4583755"
       x="30.65366"
       y="244.65744" />
    <path
       style="opacity:1;fill:#a8a8ff;fill-opacity:1;stroke:#000000;stroke-width:0.11585703;stroke-miterlimit:4;stroke-dasharray:none;stroke-dashoffset:0"
       d="m 32.079429,247.51308 a 1.382518,0.59310471 0 0 0 -0.865314,-0.5496 v 1.09928 a 1.382518,0.59310471 0 0 0 0.865314,-0.54968 z"
       id="path10611-5"
       inkscape:connector-curvature="0" />
    <path
       style="opacity:1;fill:#4d4d4d;fill-opacity:1;stroke:#000000;stroke-width:0.86697853;stroke-miterlimit:4;stroke-dasharray:none;stroke-dashoffset:0"
       d="M 349.7168 23.339844 A 29.435855 29.435855 0 0 0 328.69727 32.177734 L 338.55273 37.867188 L 351.7168 45.466797 L 351.7168 23.439453 A 29.435855 29.435855 0 0 0 349.7168 23.339844 z M 351.7168 60.083984 L 338.55273 67.683594 L 328.7168 73.363281 A 29.435855 29.435855 0 0 0 349.7168 82.210938 A 29.435855 29.435855 0 0 0 351.7168 82.140625 L 351.7168 60.083984 z "
       transform="matrix(0.26458333,0,0,0.26458333,0,233.5)"
       id="circle1684" />
    <rect
       y="241.3364"
       x="93.33461"
       height="12.254233"
       width="0.43377817"
       id="rect1708"
       style="opacity:1;fill:#008000;fill-opacity:1;stroke:#000000;stroke-width:0.26499999;stroke-miterlimit:4;stroke-dasharray:none;stroke-dashoffset:0" />
    <rect
       style="opacity:1;fill:#000000;fill-opacity:1;stroke:#000000;stroke-width:0.26499999;stroke-miterlimit:4;stroke-dasharray:none;stroke-dashoffset:0"
       id="rect1710"
       width="1.4408342"
       height="2.5708902"
       x="91.671783"
       y="246.17807" />
    <rect
       style="opacity:1;fill:#000080;fill-opacity:1;stroke:#000000;stroke-width:0.26499999;stroke-miterlimit:4;stroke-dasharray:none;stroke-dashoffset:0"
       id="rect1712"
       width="22.595592"
       height="6.1345496"
       x="4.2941837"
       y="248.94601" />
    <text
       xml:space="preserve"
       style="font-style:normal;font-variant:normal;font-weight:normal;font-stretch:normal;font-size:3.88055563px;line-height:1.25;font-family:'TeX Gyre Termes';-inkscape-font-specification:'TeX Gyre Termes';text-align:center;letter-spacing:0px;word-spacing:0px;text-anchor:middle;fill:#ffffff;fill-opacity:1;stroke:none;stroke-width:0.26458332"
       x="15.745344"
       y="253.03571"
       id="text1716"><tspan
         sodipodi:role="line"
         id="tspan1714"
         x="15.745344"
         y="253.03571"
         style="font-size:3.52777767px;fill:#ffffff;stroke-width:0.26458332">Arduino Mega</tspan></text>
    <g
       id="g1760"
       transform="translate(-0.1022425,-4.7031549)">
      <rect
         style="opacity:1;fill:#008000;fill-opacity:1;stroke:#000000;stroke-width:0.26499999;stroke-miterlimit:4;stroke-dasharray:none;stroke-dashoffset:0"
         id="rect1718"
         width="22.595592"
         height="6.1345496"
         x="96.107948"
         y="248.94601" />
      <text
         xml:space="preserve"
         style="font-style:normal;font-variant:normal;font-weight:normal;font-stretch:normal;font-size:3.88055563px;line-height:1.25;font-family:'TeX Gyre Termes';-inkscape-font-specification:'TeX Gyre Termes';text-align:center;letter-spacing:0px;word-spacing:0px;text-anchor:middle;fill:#ffffff;fill-opacity:1;stroke:none;stroke-width:0.26458332"
         x="107.5591"
         y="253.03571"
         id="text1722"><tspan
           sodipodi:role="line"
           id="tspan1720"
           x="107.5591"
           y="253.03571"
           style="font-size:3.52777767px;fill:#ffffff;stroke-width:0.26458332">Raspberry Pi</tspan></text>
    </g>
    <text
       xml:space="preserve"
       style="font-style:normal;font-variant:normal;font-weight:normal;font-stretch:normal;font-size:3.52777767px;line-height:1.04999995;font-family:'TeX Gyre Termes';-inkscape-font-specification:'TeX Gyre Termes';text-align:center;letter-spacing:0px;word-spacing:0px;text-anchor:middle;fill:#000000;fill-opacity:1;stroke:none;stroke-width:0.26458332"
       x="107.25238"
       y="255.59178"
       id="text1726"><tspan
         sodipodi:role="line"
         x="107.25238"
         y="255.59178"
         style="line-height:1.04999995;stroke-width:0.26458332"
         id="tspan1730">camera module</tspan></text>
    <text
       id="text1736"
       y="243.11821"
       x="20.039528"
       style="font-style:normal;font-variant:normal;font-weight:normal;font-stretch:normal;font-size:3.52777767px;line-height:1.04999995;font-family:'TeX Gyre Termes';-inkscape-font-specification:'TeX Gyre Termes';text-align:center;letter-spacing:0px;word-spacing:0px;text-anchor:middle;fill:#000000;fill-opacity:1;stroke:none;stroke-width:0.26458332"
       xml:space="preserve"><tspan
         id="tspan1734"
         style="line-height:1.04999995;stroke-width:0.26458332"
         y="243.11821"
         x="20.039528"
         sodipodi:role="line">NeoPixel</tspan></text>
    <text
       xml:space="preserve"
       style="font-style:normal;font-variant:normal;font-weight:normal;font-stretch:normal;font-size:3.52777767px;line-height:1.25;font-family:'TeX Gyre Termes';-inkscape-font-specification:'TeX Gyre Termes';text-align:center;letter-spacing:0px;word-spacing:0px;text-anchor:middle;fill:#000000;fill-opacity:1;stroke:none;stroke-width:0.26458332"
       x="48.769669"
       y="256.81866"
       id="text1742"><tspan
         sodipodi:role="line"
         id="tspan1740"
         x="48.769669"
         y="256.81866"
         style="stroke-width:0.26458332">paper diffuser</tspan></text>
    <path
       style="fill:none;stroke:#000000;stroke-width:0.26458332px;stroke-linecap:butt;stroke-linejoin:miter;stroke-opacity:1"
       d="m 30.653659,244.65744 -3.763883,-2.76615"
       id="path1744"
       inkscape:connector-curvature="0" />
    <path
       style="fill:none;stroke:#000000;stroke-width:0.26458332px;stroke-linecap:butt;stroke-linejoin:miter;stroke-opacity:1"
       d="m 38.54542,255.48955 -4.349424,-1.79509"
       id="path1748"
       inkscape:connector-curvature="0" />
    <path
       style="fill:none;stroke:#000000;stroke-width:0.26458332px;stroke-linecap:butt;stroke-linejoin:miter;stroke-opacity:1"
       d="m 93.768385,253.59062 2.032833,0.8765"
       id="path1764"
       inkscape:connector-curvature="0" />
    <g
       id="g2180"
       transform="translate(0,1.5875)">
      <path
         inkscape:connector-curvature="0"
         id="rect1768"
         d="m 4.4988478,259.98799 v 24.33392 h 3.6803954 v -1.32912 H 5.9302849 v -21.67516 h 2.2489583 v -1.32964 z"
         style="opacity:1;fill:#666666;fill-opacity:1;stroke:#000000;stroke-width:0.26499999;stroke-miterlimit:4;stroke-dasharray:none;stroke-dashoffset:0" />
      <rect
         y="261.31738"
         x="5.9300647"
         height="21.675409"
         width="1.4313949"
         id="rect1766"
         style="opacity:1;fill:#00ffff;fill-opacity:1;stroke:#000000;stroke-width:0.26499999;stroke-miterlimit:4;stroke-dasharray:none;stroke-dashoffset:0" />
    </g>
    <text
       xml:space="preserve"
       style="font-style:normal;font-variant:normal;font-weight:normal;font-stretch:normal;font-size:3.52777767px;line-height:1.25;font-family:'TeX Gyre Termes';-inkscape-font-specification:'TeX Gyre Termes';text-align:center;letter-spacing:0px;word-spacing:0px;text-anchor:middle;fill:#000000;fill-opacity:1;stroke:none;stroke-width:0.26458332"
       x="18.812618"
       y="281.41077"
       id="text1775"><tspan
         sodipodi:role="line"
         id="tspan1773"
         x="18.812618"
         y="281.41077"
         style="stroke-width:0.26458332">LCD Screen</tspan><tspan
         sodipodi:role="line"
         x="18.812618"
         y="285.8205"
         style="stroke-width:0.26458332"
         id="tspan1842">(not to scale)</tspan></text>
    <text
       xml:space="preserve"
       style="font-style:normal;font-variant:normal;font-weight:normal;font-stretch:normal;font-size:3.52777767px;line-height:1.25;font-family:'TeX Gyre Termes';-inkscape-font-specification:'TeX Gyre Termes';text-align:center;letter-spacing:0px;word-spacing:0px;text-anchor:middle;fill:#000000;fill-opacity:1;stroke:none;stroke-width:0.26458332"
       x="56.335617"
       y="281.20627"
       id="text1779"><tspan
         sodipodi:role="line"
         id="tspan1777"
         x="56.335617"
         y="281.20627"
         style="stroke-width:0.26458332">f=50<tspan
   style="font-size:1.41111111px"
   id="tspan3664"> </tspan>mm achromatic lens</tspan></text>
    <g
       id="g1836"
       transform="translate(42.737364,-3.0135655)">
      <g
         transform="rotate(-90,50.653263,280.8956)"
         id="g1802">
        <path
           style="opacity:1;fill:#a8a8ff;fill-opacity:1;stroke:#000000;stroke-width:0.5;stroke-miterlimit:4;stroke-dasharray:none;stroke-dashoffset:0"
           d="m 54.792854,275.42564 c -2.414594,7.8e-4 -4.583472,0.6391 -5.486778,1.61345 v 1.21096 c 3.657852,0 7.315705,0 10.973557,0 v -1.21096 c -0.90342,-0.97447 -3.07188,-1.61282 -5.486779,-1.61345 z"
           id="path10611-6"
           inkscape:connector-curvature="0"
           sodipodi:nodetypes="cccccc" />
        <path
           sodipodi:nodetypes="ccc"
           inkscape:connector-curvature="0"
           id="path1798"
           d="m 60.279633,277.02108 c -0.90342,0.14053 -3.07188,0.23259 -5.486779,0.23268 -2.414594,-1.1e-4 -4.583472,-0.0922 -5.486778,-0.23268"
           style="opacity:1;fill:#a8a8ff;fill-opacity:1;stroke:#000000;stroke-width:0.49999997;stroke-miterlimit:4;stroke-dasharray:none;stroke-dashoffset:0" />
      </g>
      <rect
         y="270.62891"
         x="68.387444"
         height="12.254233"
         width="0.43377817"
         id="rect1804"
         style="opacity:1;fill:#008000;fill-opacity:1;stroke:#000000;stroke-width:0.26499999;stroke-miterlimit:4;stroke-dasharray:none;stroke-dashoffset:0" />
      <rect
         style="opacity:1;fill:#000000;fill-opacity:1;stroke:#000000;stroke-width:0.26499999;stroke-miterlimit:4;stroke-dasharray:none;stroke-dashoffset:0"
         id="rect1806"
         width="1.4408342"
         height="2.5708902"
         x="66.724617"
         y="275.47058" />
      <path
         id="path1821"
         transform="matrix(0.26458333,0,0,0.26458333,0,233.5)"
         d="m 151.28711,131.80078 v 5.60156 h 8.50195 v -1.54492 h 26.31055 v 4.89844 h -10.14844 v 1.96484 h 10.14844 v 1.89844 h -3.9668 v 1.54688 h 3.9668 v 1.19921 l 2.70312,1.85352 v -2.15234 l 3.72852,2.55468 v -2.15234 l 3.72852,2.55469 v -2.15235 l 3.72851,2.55664 v -2.15234 l 3.72852,2.55469 v -2.15235 l 3.72851,2.55469 v -2.15234 l 3.72852,2.55664 v -2.15234 l 3.72851,2.55468 v -2.15234 l 3.72852,2.55469 v -2.15235 l 3.72852,2.55664 v -2.15234 l 3.72851,2.55469 v -2.15235 l 3.72852,2.55469 v -2.15234 l 3.72851,2.55664 v -2.15235 l 3.72852,2.55469 v -2.15234 l 3.72851,2.55469 v -2.15235 l 3.72852,2.55664 v -2.15234 l 3.72851,2.55469 v -2.15235 l 3.72852,2.55469 v -2.15234 l 3.72852,2.55664 v -2.15235 l 2.55664,1.75196 v -15.54883 l -9.22657,4.02929 -63.14648,-12.75195 z m 104.62891,38.70313 -3.72852,2.55468 v -2.15234 l -3.72852,2.55469 v -2.15235 l -3.72851,2.55664 v -2.15234 l -3.72852,2.55469 v -2.15235 l -3.72851,2.55469 v -2.15234 l -3.72852,2.55664 v -2.15234 l -3.72851,2.55468 v -2.15234 l -3.72852,2.55469 v -2.15235 l -3.72851,2.55664 v -2.15234 l -3.72852,2.55469 v -2.15235 l -3.72852,2.55469 v -2.15234 l -3.72851,2.55664 v -2.15235 l -3.72852,2.55469 v -2.15234 l -3.72851,2.55469 v -2.15235 l -3.72852,2.55664 v -2.15234 l -3.72851,2.55469 v -2.15235 l -3.72852,2.55469 v -2.15234 l -3.72852,2.55664 v -2.15235 l -2.70312,1.85157 v 1.19921 h -3.9668 v 1.54493 h 3.9668 v 1.90039 h -10.14844 v 1.96484 h 10.14844 v 4.89844 h -26.31055 v -1.54688 h -8.50195 v 5.60352 h 34.8125 l 63.14648,-12.75195 9.22657,4.02929 v -15.54883 l -2.55664,1.75391 z"
         style="fill:#4d4d4d;stroke:#000000;stroke-width:0.99999994px;stroke-linecap:butt;stroke-linejoin:miter;stroke-opacity:1"
         inkscape:connector-curvature="0" />
    </g>
    <path
       style="fill:none;stroke:#000000;stroke-width:0.26458332px;stroke-linecap:butt;stroke-linejoin:miter;stroke-opacity:1"
       d="M 111.55858,267.41101 98.76625,256.51197"
       id="path1838"
       inkscape:connector-curvature="0"
       sodipodi:nodetypes="cc" />
    <path
       style="fill:none;stroke:#000000;stroke-width:0.26458332px;stroke-linecap:butt;stroke-linejoin:miter;stroke-opacity:1"
       d="M 9.6107947,280.08162 6.6457623,276.29864"
       id="path1844"
       inkscape:connector-curvature="0" />
    <path
       style="fill:none;stroke:#000000;stroke-width:0.26499999;stroke-linecap:butt;stroke-linejoin:miter;stroke-miterlimit:4;stroke-dasharray:none;stroke-opacity:1;marker-start:url(#Arrow1Lstart);marker-end:url(#Arrow1Lend)"
       d="M 8.1793997,273.74246 H 86.599394"
       id="path1846"
       inkscape:connector-curvature="0" />
    <text
       id="text2176"
       y="272.31119"
       x="46.315849"
       style="font-style:normal;font-variant:normal;font-weight:normal;font-stretch:normal;font-size:3.52777767px;line-height:1.25;font-family:'TeX Gyre Termes';-inkscape-font-specification:'TeX Gyre Termes';text-align:center;letter-spacing:0px;word-spacing:0px;text-anchor:middle;fill:#000000;fill-opacity:1;stroke:none;stroke-width:0.26458332"
       xml:space="preserve"><tspan
         style="stroke-width:0.26458332"
         y="272.31119"
         x="46.315849"
         id="tspan2174"
         sodipodi:role="line">4<tspan
   style="font-size:1.41111111px"
   id="tspan3662"> </tspan>m</tspan></text>
    <path
       style="fill:none;stroke:#000000;stroke-width:0.26458332px;stroke-linecap:butt;stroke-linejoin:miter;stroke-opacity:1"
       d="m 88.840847,275.76173 -14.203824,4.4705"
       id="path2194"
       inkscape:connector-curvature="0"
       sodipodi:nodetypes="cc" />
    <text
       xml:space="preserve"
       style="font-style:normal;font-variant:normal;font-weight:normal;font-stretch:normal;font-size:3.52777767px;line-height:1.25;font-family:'TeX Gyre Termes';-inkscape-font-specification:'TeX Gyre Termes';text-align:center;letter-spacing:0px;word-spacing:0px;text-anchor:middle;fill:#000000;fill-opacity:1;stroke:none;stroke-width:0.26458332"
       x="6.2174873"
       y="242.92232"
       id="text2198"><tspan
         sodipodi:role="line"
         id="tspan2196"
         x="6.2174873"
         y="242.92232"
         style="stroke-width:0.26458332">(a)</tspan></text>
    <text
       id="text2202"
       y="265.47879"
       x="11.13364"
       style="font-style:normal;font-variant:normal;font-weight:normal;font-stretch:normal;font-size:3.52777767px;line-height:1.25;font-family:'TeX Gyre Termes';-inkscape-font-specification:'TeX Gyre Termes';text-align:center;letter-spacing:0px;word-spacing:0px;text-anchor:middle;fill:#000000;fill-opacity:1;stroke:none;stroke-width:0.26458332"
       xml:space="preserve"><tspan
         style="stroke-width:0.26458332"
         y="265.47879"
         x="11.13364"
         id="tspan2200"
         sodipodi:role="line">(b)</tspan></text>
  </g>
</svg>
